<svg xmlns="http://www.w3.org/2000/svg" width="332.356" height="334.821" viewBox="0 0 332.356 334.821">
  <g id="AshhLogo" transform="translate(-328.484 820.816)">
    <g id="inner" transform="translate(415.728 -732.164)">
      <path id="Path_95" data-name="Path 95" d="M569.32-646.6c-20.678,3.166-34.514,9.854-47.738,23.129-9.548,9.6-15.521,19.146-19.657,31.451-3.012,9.088-3.982,16.134-3.676,27.315.255,9.7.97,14.3,3.421,22.159,6.076,19.453,20.933,37.016,39.365,46.513a74.162,74.162,0,0,0,33.9,8.833,73.345,73.345,0,0,0,22.414-2.247,79.125,79.125,0,0,0,51.312-40.539,79.287,79.287,0,0,0,1.072-71.735c-10.722-22.312-31.5-38.395-56.418-43.654C588.313-646.4,573.251-647.215,569.32-646.6Zm21.137,6.076a73.848,73.848,0,0,1,39.824,21.954,67.513,67.513,0,0,1,12.049,17.1c5.361,10.722,7.352,18.483,7.761,30.634a68.186,68.186,0,0,1-.562,14.041,74.467,74.467,0,0,1-40.9,55.141,74.015,74.015,0,0,1-60.349,1.787,73.8,73.8,0,0,1-35.536-31.043,73.278,73.278,0,0,1-1.532-71.122c11.181-21.648,32.574-36.25,57.847-39.467C572.689-641.956,586.27-641.343,590.457-640.527Z" transform="translate(-498.194 646.813)"/>
      <path id="Path_96" data-name="Path 96" d="M572.577-634.073a70.728,70.728,0,0,0-24,7.761c-28.694,14.857-44.113,47.585-37.527,79.5a70.934,70.934,0,0,0,20.116,36.608,64.424,64.424,0,0,0,18.738,13.581c10.62,5.361,20.372,7.607,32.881,7.556,12.3-.051,21.291-2.144,31.859-7.4a73.085,73.085,0,0,0,32.421-98.642c-5.31-10.467-15.623-21.7-26.294-28.541a79.062,79.062,0,0,0-25.733-9.854A85.6,85.6,0,0,0,572.577-634.073Zm-16.338,14.755a64.079,64.079,0,0,0-34.974,46c-1.021,5.923-1.021,16.8.051,22.312a63.619,63.619,0,0,0,43.5,49.168,67.809,67.809,0,0,0,28.49,2.3c19.708-2.706,38.139-16.083,47.177-34.157,4.8-9.6,6.74-18.125,6.791-29.358.051-6.382.1-6.79.46-3.574.766,6.484-.2,15.777-2.451,23.537-6.637,23.129-26.294,40.743-50.648,45.492-6.586,1.276-17.717,1.123-24.558-.306a64.948,64.948,0,0,1-33.953-18.942,64.8,64.8,0,0,1-16.849-34.77c-3.676-25.018,7.046-49.117,28.183-63.464,2.961-1.991,11.692-6.433,12.611-6.382C560.374-621.462,558.638-620.492,556.239-619.318Zm38.854,5.616a51.6,51.6,0,0,1,24.1,13.683l4.187,4.187-4.238-3.931a52.9,52.9,0,0,0-23.333-13.071c-5.769-1.583-16.7-1.94-22.873-.817-21.036,3.982-36.965,19.1-42.53,40.386-.715,2.757-.919,5.514-.97,12,0,9.394.817,13.785,4.085,21.495,7.2,17.1,24.763,30.328,43.909,33.085,2.553.357,2.757.459,1.021.459-5.361.153-14.909-2.451-21.546-5.82a55.077,55.077,0,0,1-28.081-35.28c-1.174-4.442-1.328-5.974-1.328-13.428,0-7.505.153-8.986,1.328-13.53a55.262,55.262,0,0,1,45.032-40.641C578.7-615.693,589.732-615.08,595.093-613.7Zm-1.123,9.088a56.44,56.44,0,0,1,17.257,8.629c17.462,14.041,20.78,39.467,7.608,57.9a54.237,54.237,0,0,1-11.182,10.977,54.085,54.085,0,0,1-15.47,6.739c-6.382,1.583-16.185,1.583-21.852.051a42.122,42.122,0,0,1-27.162-22.822,36.912,36.912,0,0,1-4.136-15.879,43.327,43.327,0,0,1,16.134-37.016A44.3,44.3,0,0,1,593.97-604.613ZM624.706-594.1c.664.817.613.868-.153.2a2.926,2.926,0,0,1-.919-.868C623.634-595.168,624.042-594.912,624.706-594.1Zm1.532,2.042c.664.817.613.868-.153.2a2.926,2.926,0,0,1-.919-.868C625.165-593.125,625.574-592.87,626.237-592.053Zm20.729,20.678c-.153.357-.255.1-.255-.613s.1-.97.255-.664A2.694,2.694,0,0,1,646.967-571.375Z" transform="translate(-503.749 640.819)"/>
      <path id="Path_97" data-name="Path 97" d="M603.486-575.137a41.522,41.522,0,0,0-21.955,11.743,41.689,41.689,0,0,0-8.68,47.125,42.608,42.608,0,0,0,29.1,23.486,47.15,47.15,0,0,0,18.891-.306c18.483-4.8,31.859-21.8,31.911-40.539a42.7,42.7,0,0,0-23.333-37.833C622.224-575.086,611.144-576.618,603.486-575.137Zm16.8,11.794a32.773,32.773,0,0,1,21.7,17.1c6.331,12.917,4.085,27.571-5.769,37.527a30.368,30.368,0,0,1-13.326,8.22c-3.421,1.174-4.953,1.379-9.7,1.43-9.6,0-16.644-2.808-23.282-9.394a33.563,33.563,0,0,1-8.935-15.828c-1.123-4.391-.766-12.713.766-17.359,3.217-10.058,13.071-19.555,22.006-21.138,1.43-.255,1.276-.1-.766.664-7.3,2.655-12.611,6.688-16.44,12.407s-5,9.956-5,17.768c.051,5.565.2,6.842,1.328,10.007a32.928,32.928,0,0,0,13.836,16.7c17.921,10.671,41.458.919,46.615-19.3a38.805,38.805,0,0,0,0-14.96,32.032,32.032,0,0,0-21.444-22.72c-2.91-.919-4.8-1.123-9.905-1.123-3.523,0-5.718-.153-4.85-.306C609.868-564.262,616.709-564.109,620.283-563.343Zm-1.685,6.382c17.717,5.463,23.078,28.132,9.854,41.458A24.633,24.633,0,0,1,587.1-526.582a31.4,31.4,0,0,1-.715-6.893,24.68,24.68,0,0,1,17.359-23.537A28.752,28.752,0,0,1,618.6-556.961Z" transform="translate(-532.871 612.007)"/>
      <path id="Path_98" data-name="Path 98" d="M628.059-533.4a21.729,21.729,0,0,0-14.807,11.59c-1.634,3.37-1.889,4.391-2.093,8.424-.255,5.565.613,9.088,3.37,13.173a21.544,21.544,0,0,0,37.271-2.451c1.838-3.778,1.889-4.033,1.889-9.5,0-5.31-.1-5.872-1.634-9.139A21.9,21.9,0,0,0,628.059-533.4Zm5.974,20.167a1.72,1.72,0,0,1-1.532,2.808c-1.532,0-2.246-1.072-1.787-2.6C631.122-514.2,633.114-514.3,634.033-513.23Z" transform="translate(-553.462 591.507)"/>
    </g>
    <g id="mid" transform="translate(365.848 -781.273)">
      <path id="Path_66" data-name="Path 66" d="M609.372-742.032c-4.442.459-15.266,2.451-16.185,2.91-.459.2.408,2.093,2.808,6.076a49.025,49.025,0,0,0,3.676,5.718,11.263,11.263,0,0,0,1.481-3.012c1.123-2.859,1.123-3.063.306-4.34-.511-.766-.817-1.43-.715-1.532s2.859-.562,6.076-1.021c9.8-1.43,9.7-1.378,7.505-3.931C613.252-742.44,613.1-742.44,609.372-742.032Z" transform="translate(-494.749 742.644)"/>
      <path id="Path_67" data-name="Path 67" d="M641.216-738.813a163.96,163.96,0,0,1,15.062,24.252,19.807,19.807,0,0,0,2.144,3.727,60.854,60.854,0,0,0,4.085-5.974l3.778-5.974,1.736-8.884c.919-4.9,1.583-8.986,1.481-9.088a26.563,26.563,0,0,0-5.769-1.072c-.1.1-.868,3.982-1.685,8.731-.817,4.7-1.634,8.68-1.736,8.782-.1.153-3.319-4.033-7.046-9.241L646.424-743H638Z" transform="translate(-516.74 743)"/>
      <path id="Path_68" data-name="Path 68" d="M703.687-731.124c-.357,3.319-1.072,9.8-1.634,14.4s-.97,8.526-.868,8.782c.2.613,7.556-4.646,7.556-5.361,0-.306.562-4.8,1.276-10.007s1.276-10.058,1.276-10.824c0-1.43-.715-1.787-5.412-2.757l-1.532-.306Z" transform="translate(-547.657 740.161)"/>
      <path id="Path_69" data-name="Path 69" d="M576.748-732.993a10.123,10.123,0,0,0-2.451.919c-.1.1,2.349,5.31,5.463,11.59,4.085,8.169,6.433,12.2,8.322,14.347,1.379,1.634,2.706,2.859,2.859,2.655a16.076,16.076,0,0,0,.868-3.574l.562-3.268-6.178-11.59c-3.421-6.331-6.433-11.59-6.688-11.692A9.975,9.975,0,0,0,576.748-732.993Z" transform="translate(-485.56 738.406)"/>
      <path id="Path_70" data-name="Path 70" d="M624.49-730.877c-.153.664-1.583,3.727-3.114,6.893l-2.808,5.718-3.37.306c-1.889.153-3.676.357-3.982.408-.408.051-.153,1.072.613,2.757,1.174,2.655,1.174,2.706,3.37,2.655,1.225-.051,3.421-.2,4.953-.357l2.706-.357,2.706-6.739,2.757-6.74-1.532-2.859A20.088,20.088,0,0,0,625.051-732C624.949-732,624.694-731.489,624.49-730.877Z" transform="translate(-503.536 737.616)"/>
      <path id="Path_71" data-name="Path 71" d="M723.82-722.234c-.868,5.259-1.532,9.6-1.43,9.7a20.659,20.659,0,0,0,3.166-2.6l3.012-2.757,1.174-5.514c.613-3.063,1.123-5.82,1.123-6.076,0-.306-.868-.766-1.889-1.123a28.346,28.346,0,0,1-2.757-.919C725.556-731.782,725.2-730.4,723.82-722.234Z" transform="translate(-558.038 737.398)"/>
      <path id="Path_72" data-name="Path 72" d="M555.451-725.777,553-724.654l3.268,5.055c2.961,4.6,3.574,5.259,6.995,7.3,2.093,1.276,4.544,2.757,5.514,3.37.97.562,1.634.868,1.481.562-3.676-6.842-11.028-18.585-11.641-18.534A13.183,13.183,0,0,0,555.451-725.777Z" transform="translate(-475.138 735.12)"/>
      <path id="Path_73" data-name="Path 73" d="M741.527-720.028l-1.327,5.82,1.583,6.229c1.021,4.187,1.685,5.872,1.889,5.208,1.379-3.829,5.208-20.218,4.8-20.627a15.327,15.327,0,0,0-3.063-1.481l-2.6-1.021Z" transform="translate(-566.76 734.631)"/>
      <path id="Path_74" data-name="Path 74" d="M539.54-718.729c-1.327.562-2.349,1.276-2.247,1.532.306.97,10.824,15.674,11.233,15.674.2,0,.357-1.889.357-4.187v-4.136l-3.166-5a37.388,37.388,0,0,0-3.472-4.952A20.951,20.951,0,0,0,539.54-718.729Z" transform="translate(-467.447 731.646)"/>
      <path id="Path_75" data-name="Path 75" d="M753.362-704.7c-3.165,9.752-4.033,13.02-4.238,16.389-.357,4.7-.613,4.544,3.523,1.634,2.246-1.634,2.451-1.991,3.931-6.688,4.7-15.317,6.229-20.627,6.076-20.78-.051-.051-1.327-.715-2.757-1.43l-2.6-1.328Z" transform="translate(-571.038 730.226)"/>
      <path id="Path_76" data-name="Path 76" d="M638.758-711.309c-.153.408-1.583,4.493-3.166,9.139-2.4,7.046-5.616,15.93-7.046,19.453-.306.766.459.817,7.454.766,4.289,0,10.416.153,13.53.357,5.412.409,5.718.357,5.412-.51-.919-2.655-11.079-22.823-12.917-25.682C639.371-711.922,639.065-712.228,638.758-711.309Zm6.791,19.81c1.43,1.838,2.451,3.472,2.247,3.676-.408.408-13.581,3.523-13.836,3.319-.051-.1,1.072-3.421,2.553-7.4l2.706-7.2,1.838,2.144C642.077-695.737,644.068-693.286,645.549-691.5Z" transform="translate(-512.086 727.698)"/>
      <path id="Path_77" data-name="Path 77" d="M520.655-709.12,518-707.435l9.292,11.794c5.157,6.484,9.394,11.743,9.445,11.692s.408-2.042.817-4.442l.766-4.34-6.688-8.935c-3.727-4.9-7.1-8.986-7.505-9.037A10.362,10.362,0,0,0,520.655-709.12Z" transform="translate(-458.008 727.194)"/>
      <path id="Path_78" data-name="Path 78" d="M778.6-705.111c-1.43,5.514-2.6,10.313-2.6,10.773,0,.306,1.327,0,2.961-.664,2.4-.919,3.012-1.43,3.421-2.757.255-.868.613-1.583.766-1.583.2,0,2.961,1.94,6.178,4.289s6.025,4.135,6.229,3.931a5.823,5.823,0,0,0,.664-2.2c.306-1.685.153-1.889-3.166-4.493-4.289-3.37-12.815-9.19-13.479-9.19C779.319-707,778.859-706.132,778.6-705.111Z" transform="translate(-584.281 725.38)"/>
      <path id="Path_79" data-name="Path 79" d="M486.393-698.417c-1.225.919-2.349,1.685-2.4,1.787a84.841,84.841,0,0,0,4.953,7.556c2.859,4.034,5.157,7.454,5.157,7.608s-17.972-2.6-22.108-3.421c-1.276-.255-1.838.1-4.238,2.655L465-679.322l1.94.357c1.021.2,4.289.715,7.2,1.174a175.664,175.664,0,0,1,23.231,5.82,31.493,31.493,0,0,0,4.7,1.43c.051-.051-.511-3.217-1.328-7.046l-1.43-6.995-5.208-7.71c-2.859-4.238-5.259-7.71-5.31-7.71A22.456,22.456,0,0,0,486.393-698.417Z" transform="translate(-432.068 721.954)"/>
      <path id="Path_81" data-name="Path 81" d="M711.7-695.571c-1.889,2.6-11.641,13.632-15.725,17.819-2.3,2.3-4.034,4.289-3.88,4.391.1.1,3.319,1.379,7.1,2.859s9.292,3.931,12.2,5.463l5.31,2.757-.357-8.833c-.46-12.662-2.2-25.937-3.319-25.886A5.175,5.175,0,0,0,711.7-695.571Zm-1.583,18.789a76.893,76.893,0,0,1,1.174,8.169c-.153.153-6.127-3.37-10.926-6.433-1.174-.766-1.123-.817,3.268-5.208a42.346,42.346,0,0,1,4.8-4.493A59.643,59.643,0,0,1,710.114-676.782Z" transform="translate(-543.209 720.486)"/>
      <path id="Path_82" data-name="Path 82" d="M564-691.519c0,.868.255,4.34.511,7.812.306,3.472.715,9.9.919,14.3l.357,8.016,5.106-2.3c2.808-1.276,8.22-3.37,12-4.646a74.479,74.479,0,0,0,7.3-2.706c1.072-.97-23.741-21.955-25.937-21.955C564.1-693,564-692.336,564-691.519Zm11.13,13.071c8.322,4.238,8.169,3.421,1.379,8.169-3.268,2.246-6.127,4.136-6.382,4.238-.306.1-.511-1.378-.511-3.625,0-2.093-.153-5.514-.306-7.659-.2-2.2-.2-3.931,0-3.931S572.169-679.98,575.13-678.449Z" transform="translate(-480.522 718.528)"/>
      <path id="Path_84" data-name="Path 84" d="M613.3-681.768a40.138,40.138,0,0,0-.919,5.719c.1.153.919-.153,1.787-.562a6.671,6.671,0,0,1,2.093-.817c.306,0,.511,1.634.562,4.187,0,2.6.153,3.829.408,3.217.613-1.634,2.246-11.539,1.94-11.845a2.986,2.986,0,0,0-1.838.255c-1.787.613-2.093.408-2.144-1.634C615.04-687.64,614.427-687.18,613.3-681.768Z" transform="translate(-504.196 715.21)"/>
      <path id="Path_85" data-name="Path 85" d="M683.655-680.393c-1.889,2.961-3.319,5.616-3.166,5.872a3.375,3.375,0,0,0,2.042.46h1.685l-.715,2.655a11.373,11.373,0,0,0-.511,2.808,93.751,93.751,0,0,0,6.433-9.19,8.03,8.03,0,0,0-2.553.051l-2.6.255,1.123-2.757c1.889-4.748,2.042-5.208,1.889-5.361A49.749,49.749,0,0,0,683.655-680.393Z" transform="translate(-537.53 714.907)"/>
      <path id="Path_86" data-name="Path 86" d="M811.594-679.064a57.447,57.447,0,0,0-.817,5.82c-.306,2.808-1.072,7.148-1.634,9.7-1.276,5.514-5,18.534-5.667,19.81-.255.511-.408,1.072-.306,1.174a63.84,63.84,0,0,0,7.25-1.328l7.046-1.532,7.25-4.9c3.931-2.706,7.4-5.106,7.659-5.31.562-.562-2.757-5.208-3.523-4.9-.306.1-3.727,2.4-7.556,5.106s-7.046,4.9-7.148,4.9.562-4.748,1.481-10.62c.97-5.82,1.736-11.13,1.736-11.845C817.363-674.571,811.951-680.289,811.594-679.064Z" transform="translate(-597.563 711.791)"/>
      <path id="Path_87" data-name="Path 87" d="M789.444-671.282c-.408.255-3.574,1.43-7.046,2.6l-6.229,2.2-2.553-2.4a14.1,14.1,0,0,0-2.961-2.349c-.255,0-.97,1.072-1.583,2.4L768-666.381l3.472,3.166A24.52,24.52,0,0,0,775.4-660a70.712,70.712,0,0,0,7.046-2.655l6.535-2.706.766-2.706C790.618-671.078,790.567-671.895,789.444-671.282Z" transform="translate(-580.366 707.992)"/>
      <path id="Path_90" data-name="Path 90" d="M543-656.626c0,.664,1.583,9.088,1.838,9.854.2.562.715.255,1.94-1.174l1.685-1.991,1.685,3.88a18.077,18.077,0,0,0,1.838,3.727,114.9,114.9,0,0,0-2.655-12.56c-.1-.153-.715.255-1.379.868-1.634,1.532-2.042,1.43-3.37-.919C543.51-656.882,543-657.392,543-656.626Z" transform="translate(-470.244 700.893)"/>
      <path id="Path_91" data-name="Path 91" d="M448.534-653.606c-3.829,4.238-11.437,15.266-10.773,15.674.715.408,12.56,3.319,12.764,3.114a7.851,7.851,0,0,0-.715-2.859c-.817-2.247-1.276-2.808-2.859-3.421l-1.838-.715,4.289-5.769a48.564,48.564,0,0,0,4.289-6.229,1.145,1.145,0,0,0-.817-.868A3.733,3.733,0,0,0,448.534-653.606Z" transform="translate(-418.717 699.915)"/>
      <path id="Path_92" data-name="Path 92" d="M750.265-651.021l-5.565,3.88,1.94.97c2.042,1.072,2.093.715-.715,4.544-.715.919-.919,1.481-.511,1.225.357-.255,2.655-1.685,5-3.217,4.238-2.757,4.289-2.808,3.063-3.472a7.255,7.255,0,0,0-2.093-.715c-.511,0-.919-.153-.919-.306a28.023,28.023,0,0,1,2.859-3.574c1.583-1.787,2.808-3.268,2.706-3.217C755.932-654.9,753.329-653.165,750.265-651.021Z" transform="translate(-568.962 699.882)"/>
      <path id="Path_93" data-name="Path 93" d="M473.335-650.781c.153.459,1.328,3.727,2.6,7.2,2.5,7.1,2.6,6.127-1.327,10.365-.97,1.072-1.685,1.991-1.532,2.093a23.5,23.5,0,0,0,2.859,1.225l2.655,1.072,2.91-3.37a32.9,32.9,0,0,0,3.063-3.931c.153-.306-1.021-3.523-2.553-7.148l-2.757-6.586-3.165-.868C473.131-651.6,472.978-651.6,473.335-650.781Z" transform="translate(-436.013 698.162)"/>
      <path id="Path_94" data-name="Path 94" d="M770.849-645.765c-4.493,2.3-10.671,5.259-13.683,6.586-3.063,1.328-5.616,2.5-5.769,2.655a31.1,31.1,0,0,0,4.187,4.493c2.4,2.349,6.484,6.637,8.986,9.5a46.087,46.087,0,0,0,4.952,5.259c.511,0,6.331-16.185,8.22-22.771,1.634-5.871,2.349-9.9,1.736-9.854C779.222-649.9,775.342-648.011,770.849-645.765Zm-1.787,13.275c-.919,4.033-1.838,7.454-1.991,7.658-.306.357-6.689-9.6-6.689-10.416,0-.613,9.956-5.463,10.109-4.953A64.7,64.7,0,0,1,769.062-632.49Z" transform="translate(-572.238 697.434)"/>
      <path id="Path_99" data-name="Path 99" d="M494.376-641.7c1.736,3.012,10.467,21.342,11.59,24.252l.868,2.247,5.769-5.872c3.115-3.217,7.505-7.3,9.7-9.088a28.4,28.4,0,0,0,3.931-3.625c0-.357-7.1-3.114-15.572-5.974-6.076-2.042-14.5-4.238-16.287-4.238H493.1Zm20.729,9.241c2.144.51,3.829,1.072,3.676,1.327-.357.562-10.518,8.118-10.722,7.965-.2-.255-5.31-11.59-5.31-11.845a27.491,27.491,0,0,1,4.238.766C509.285-633.737,512.961-632.921,515.105-632.461Z" transform="translate(-445.821 694.546)"/>
      <path id="Path_100" data-name="Path 100" d="M836.236-621.588c-3.727,2.961-8.884,7.046-11.488,9.037A56.6,56.6,0,0,0,820-608.568c0,.2,1.889.715,4.187,1.123,4.953.919,3.217,1.736,15.113-7.454l7.812-6.076-.868-1.328c-.46-.715-1.276-2.042-1.838-3.012A8.2,8.2,0,0,0,843.231-627C843.129-627,840.014-624.549,836.236-621.588Z" transform="translate(-605.816 686.226)"/>
      <path id="Path_101" data-name="Path 101" d="M429.52-612.651c-.766,1.276-1.174,2.5-.97,2.757.255.2,5.769,2.144,12.2,4.289,9.241,3.012,12.662,3.931,16.083,4.187l4.289.357-2.3-3.217-2.3-3.217-12.254-3.727C437.587-613.315,431.817-615,431.46-615,431.154-615,430.286-613.928,429.52-612.651Z" transform="translate(-414.203 680.353)"/>
      <path id="Path_102" data-name="Path 102" d="M852.907-602.537c-4.238,3.012-7.659,5.514-7.608,5.565s1.889.2,4.034.408l3.88.306,5.157-3.319c2.859-1.838,5.157-3.574,5.157-3.88,0-.817-2.042-4.544-2.5-4.544C860.77-608,857.145-605.549,852.907-602.537Z" transform="translate(-618.198 676.927)"/>
      <path id="Path_104" data-name="Path 104" d="M494.154-603.164c-.511.97-.97,1.838-1.072,1.94a7.037,7.037,0,0,1-2.144-1.43,11.607,11.607,0,0,0-2.349-1.583,39.026,39.026,0,0,0,2.859,4.9l3.165,4.953.715-2.246a11.816,11.816,0,0,1,.97-2.451c.1-.153,1.532,1.123,3.217,2.757,1.685,1.685,3.063,2.859,3.063,2.655,0-.306-6.229-9.65-7.2-10.773C495.175-604.644,494.613-604.083,494.154-603.164Z" transform="translate(-443.607 675.205)"/>
      <path id="Path_105" data-name="Path 105" d="M797.833-598.376c-3.319.766-5.769,1.532-5.769,1.889a2.937,2.937,0,0,0,1.021,1.532,3.856,3.856,0,0,1,1.021,1.225,10.357,10.357,0,0,1-2.553,1.736A17.427,17.427,0,0,0,789-590.411c0,.153,10.109-1.634,11.13-1.991.409-.153,0-.817-1.225-1.889l-1.889-1.685,4.034-1.889C805.747-600.061,805.491-600.112,797.833-598.376Z" transform="translate(-590.644 672.817)"/>
      <path id="Path_106" data-name="Path 106" d="M420.393-594.111c-.715,1.583-1.174,3.063-1.021,3.268.153.255,2.808.97,5.974,1.634l5.667,1.225,5.923-1.481c3.574-.868,5.565-1.583,5.157-1.787s-4.85-1.481-9.905-2.808-9.5-2.553-9.854-2.655C421.976-596.868,421.21-595.846,420.393-594.111Z" transform="translate(-409.722 671.411)"/>
      <path id="Path_108" data-name="Path 108" d="M862.443-588.735c-4.442,3.012-4.9,3.472-7.71,8.067-1.634,2.706-3.115,5.208-3.37,5.514-.306.562-.153.511.817,0,1.991-1.021,17.513-10.262,17.972-10.671.511-.46-1.685-6.127-2.4-6.076A35.688,35.688,0,0,0,862.443-588.735Z" transform="translate(-621.097 669.047)"/>
      <path id="Path_109" data-name="Path 109" d="M813.912-579.1c-4.646.306-11.028.664-14.143.664a48.447,48.447,0,0,0-5.769.255c0,.153,1.225,3.063,2.757,6.535,1.481,3.472,3.625,8.986,4.7,12.254,1.072,3.319,2.093,6.025,2.3,6.025.562,0,9.445-9.7,14.3-15.572,3.778-4.6,7.607-9.956,7.607-10.722C825.655-579.972,824.583-579.921,813.912-579.1Zm-.868,5.718c-2.451,3.829-8.629,12.356-8.884,12.356s-4.748-9.65-5.974-12.815c-.1-.255,2.757-.511,6.382-.613,3.574-.051,7.2-.2,7.965-.255l1.481-.1Z" transform="translate(-593.091 663.144)"/>
      <path id="Path_110" data-name="Path 110" d="M413.976-576.236c-.511,1.43-.664,2.757-.46,2.961a75.287,75.287,0,0,0,8.884,1.787c4.646.766,8.884,1.532,9.394,1.685.613.153-.1-.919-1.94-3.012l-2.91-3.319-5.208-1.123c-2.859-.613-5.565-1.225-6.076-1.379C415.048-578.84,414.639-578.227,413.976-576.236Z" transform="translate(-406.828 662.573)"/>
      <path id="Path_111" data-name="Path 111" d="M476.436-577.552c-15.726.817-27.724,2.144-28.745,3.166-.2.2,2.859,3.268,6.893,6.739s9.292,8.22,11.743,10.62c4.34,4.136,4.493,4.238,4.953,3.063a142.383,142.383,0,0,1,7.148-16.645c1.685-3.472,3.114-6.484,3.114-6.791,0-.255-.511-.459-1.123-.408C479.754-577.756,477.967-577.654,476.436-577.552Zm-2.042,4.187c0,.511-4.544,12.458-4.85,12.764-.255.255-2.093-1.276-6.433-5.208-1.991-1.889-3.523-3.574-3.319-3.778.255-.255,13.02-4.034,14.245-4.187C474.24-573.825,474.393-573.621,474.393-573.366Z" transform="translate(-423.592 662.154)"/>
      <path id="Path_113" data-name="Path 113" d="M852.988-565.748c-11.437,5.923-18.432,10.671-17.053,11.539a17.592,17.592,0,0,0,3.829.766c3.063.306,3.319.255,7.454-1.94,15.368-8.271,18.074-9.752,18.534-10.16.46-.459-.459-4.952-1.174-5.667C864.373-571.416,859.165-568.965,852.988-565.748Z" transform="translate(-613.531 658.927)"/>
      <path id="Path_115" data-name="Path 115" d="M407.8-557.83a14.871,14.871,0,0,0-.715,3.625c.153.1,6.076.919,13.224,1.736,7.148.868,13.888,1.736,15.011,1.889l1.991.306-2.451-3.472c-1.379-1.94-2.6-3.676-2.757-3.88-.255-.306-6.433-1.225-21.291-3.268l-2.093-.306Z" transform="translate(-403.711 654.021)"/>
      <path id="Path_116" data-name="Path 116" d="M880.149-549.579c-3.165,1.889-5.565,3.625-5.361,3.778a17.74,17.74,0,0,0,2.91,1.378c2.349.919,2.706.97,4.034.255a3.067,3.067,0,0,1,1.685-.511c.1.153.715,3.319,1.276,7.1a57.658,57.658,0,0,0,1.379,7.148c.2.2,1.072-.051,1.991-.613,1.379-.868,1.634-1.276,1.634-3.063,0-3.982-2.757-18.891-3.472-18.891A63.971,63.971,0,0,0,880.149-549.579Z" transform="translate(-632.626 650.008)"/>
      <path id="Path_117" data-name="Path 117" d="M402.389-536.931c-.306,1.838-.306,3.063-.051,3.268.306.153,4.289.97,8.935,1.787,4.6.766,8.322,1.634,8.22,1.889-.051.255-4.391,3.472-9.548,7.2L400.5-516l.051,3.676a16.7,16.7,0,0,0,.357,3.931c.1.153,2.3-1.328,4.85-3.217a150.761,150.761,0,0,1,20.984-13.02,57.031,57.031,0,0,0,6.178-3.523c0-.306-8.935-6.382-11.079-7.505a68.739,68.739,0,0,0-9.19-2.2c-4.442-.817-8.424-1.634-8.884-1.787C403.053-539.841,402.8-539.28,402.389-536.931Z" transform="translate(-400.5 643.487)"/>
      <path id="Path_118" data-name="Path 118" d="M463.736-536.212a4.851,4.851,0,0,0-.306,2.042c0,1.634-.1,1.736-1.327,1.43-4.6-1.174-4.6-.97.051,2.2a53.929,53.929,0,0,0,4.9,3.115c.2,0,.2-1.021.051-2.3-.1-1.276-.1-2.3.051-2.3a42.254,42.254,0,0,1,4.238,1.532c2.2.817,3.676,1.225,3.268.817C473.233-531,464.043-536.518,463.736-536.212Z" transform="translate(-428.966 641.797)"/>
      <path id="Path_119" data-name="Path 119" d="M856.557-533.485l-2.757,1.072.306,2.246a43.267,43.267,0,0,1,.306,4.442,5.025,5.025,0,0,0,.715,2.91c1.225,1.225,12.611,5.565,13.785,5.259a16.921,16.921,0,0,0,3.115-1.532l1.991-1.225-3.574-1.634c-1.991-.868-5.055-2.3-6.893-3.217l-3.268-1.634-.357-3.727a20.949,20.949,0,0,0-.511-3.88A17.579,17.579,0,0,0,856.557-533.485Z" transform="translate(-622.359 640.909)"/>
      <path id="Path_120" data-name="Path 120" d="M819.67-529.18a4.033,4.033,0,0,1,.255,2.144,11.839,11.839,0,0,1-2.961.613c-3.063.46-3.012.46,4.34,2.042,4.748,1.021,5.055.919,3.676-1.481-1.072-1.889-.97-2.042,1.685-2.093a25.2,25.2,0,0,0,3.931-.408c1.225-.255.511-.511-3.574-1.225-2.808-.511-5.718-1.072-6.484-1.225C819.16-531.069,819.16-531.069,819.67-529.18Z" transform="translate(-603.394 639.208)"/>
      <path id="Path_121" data-name="Path 121" d="M454.845-514.528c-12.509,5.872-22.312,11.488-21.954,12.611.1.255,5.616,2.349,12.254,4.646,6.637,2.246,13.122,4.544,14.4,5.157l2.349,1.072.357-11.59c.2-6.331.46-12.407.613-13.479.2-1.021.1-1.889-.1-1.889C462.5-518,458.93-516.417,454.845-514.528Zm3.778,11.335c.715,3.523,1.225,6.433,1.174,6.535-.1.051-3.421-1.123-7.454-2.655l-7.352-2.757,2.451-1.685c1.379-.97,3.982-2.808,5.872-4.135,1.838-1.276,3.523-2.2,3.676-2.042A48.834,48.834,0,0,1,458.624-503.194Z" transform="translate(-416.348 632.878)"/>
      <path id="Path_122" data-name="Path 122" d="M815.464-508.927c.051,3.931-.051,10.007-.306,13.581l-.357,6.535,1.481-.511c6.178-2.2,29.817-14.909,29.051-15.674-.153-.153-5.157-1.94-11.13-3.982a192.855,192.855,0,0,1-18.176-6.74C815.515-515.922,815.413-514.492,815.464-508.927Zm11.079,1.736a41.292,41.292,0,0,1,5.718,2.5c0,.306-11.488,8.833-12.3,9.139-.255.1-.459-3.063-.459-7.046,0-5.616.153-7.2.664-7.046C820.467-509.489,823.378-508.417,826.543-507.191Z" transform="translate(-603.271 631.77)"/>
      <path id="Path_123" data-name="Path 123" d="M872.555-507.183c-2.2,2.655-15.828,11.59-25.886,16.9L840.9-487.22l6.127,3.931,6.076,3.931,9.139,1.685c6.178,1.174,9.19,1.532,9.446,1.174.46-.766,1.072-5,.715-5.31-.153-.153-4.136-.97-8.833-1.787s-8.68-1.634-8.833-1.736c-.1-.153,0-.408.306-.613s4.6-3.319,9.6-6.944l8.986-6.586v-4.238a24,24,0,0,0-.2-4.289A3.392,3.392,0,0,0,872.555-507.183Z" transform="translate(-616.045 627.984)"/>
      <path id="Path_126" data-name="Path 126" d="M415.429-482.621c-2.3,1.276-3.115,2.2-1.94,2.2.919,0,12.458,5.616,12.866,6.28a14.218,14.218,0,0,1,.408,4.034c0,1.94.2,3.472.46,3.472a16.8,16.8,0,0,0,2.808-1.021c2.3-1.072,2.349-1.123,2.349-3.472,0-1.327-.153-3.574-.306-4.952l-.306-2.553-6.535-2.706c-3.574-1.43-6.688-2.655-6.944-2.655A13.618,13.618,0,0,0,415.429-482.621Z" transform="translate(-406.596 616.237)"/>
      <path id="Path_128" data-name="Path 128" d="M403.511-475.848a9.68,9.68,0,0,0-1.94,1.174c-.817.817,2.3,20.984,3.319,20.984.613,0,11.59-6.28,11.641-6.688a10.1,10.1,0,0,0-2.553-1.481c-2.349-1.072-2.757-1.123-4.391-.562a5.055,5.055,0,0,1-1.991.46c-.051-.051-.511-3.012-1.021-6.535C405.4-476.921,405.4-476.87,403.511-475.848Z" transform="translate(-400.958 612.477)"/>
      <path id="Path_130" data-name="Path 130" d="M461.541-463.138c.153.459.46,1.379.613,2.042.306,1.123.153,1.225-1.634,1.276-4.493.051-3.931.766,1.583,1.94a24.885,24.885,0,0,0,5.718.868c.153-.153-.2-1.072-.817-2.093a22.242,22.242,0,0,1-1.072-2.042,22.574,22.574,0,0,1,4.493-.357l4.442-.153-5.923-1.174C461.8-464.21,461.133-464.21,461.541-463.138Z" transform="translate(-428.405 606.403)"/>
      <path id="Path_131" data-name="Path 131" d="M820.484-462.9a7.9,7.9,0,0,0-.306,2.093c0,1.123-.153,1.225-1.379.919-3.574-.868-3.982-.868-3.472-.408a73.9,73.9,0,0,0,8.476,5.769c.255,0,.306-1.021.1-2.3-.153-1.327-.1-2.3.2-2.3a21.109,21.109,0,0,1,3.676,1.327,13.281,13.281,0,0,0,3.421,1.072c.2-.153-5.412-3.931-9.8-6.586C821.046-463.562,820.689-463.358,820.484-462.9Z" transform="translate(-603.442 606.164)"/>
      <path id="Path_132" data-name="Path 132" d="M466.419-446.882c-2.961,3.319-6.688,7.505-8.22,9.343-3.165,3.778-8.118,10.773-7.812,11.13a52.942,52.942,0,0,0,6.791-.408c3.574-.306,10.722-.664,15.828-.868l9.241-.306-1.276-2.859a171.857,171.857,0,0,1-6.535-16.593c-.868-2.808-1.787-5.157-2.093-5.259C472.086-452.8,469.431-450.15,466.419-446.882Zm7.25,7.71a32.835,32.835,0,0,1,.97,4.953c-.357.306-11.181,2.4-11.692,2.2-.255-.1,1.634-3.114,4.187-6.74,3.165-4.442,4.748-6.331,5-5.872C472.341-444.227,473.005-441.777,473.669-439.173Z" transform="translate(-424.91 600.921)"/>
      <path id="Path_133" data-name="Path 133" d="M800.935-446.841a133.08,133.08,0,0,1-5.412,12.3c-1.94,3.829-3.523,7.1-3.523,7.25,0,.2,1.43.153,15.879-.766,7.965-.511,16.849-1.736,18.176-2.451.511-.306-.562-1.43-3.778-4.187-3.523-2.961-11.9-10.262-13.428-11.743-.153-.153-1.583-1.481-3.114-2.961l-2.859-2.706Zm8.169,6.229a56.517,56.517,0,0,1,5.259,5.208c-.357.357-15.777,2.859-16.032,2.6-.408-.408,4.493-13.173,4.953-13.02C803.539-445.718,806.143-443.42,809.1-440.612Z" transform="translate(-592.112 600.624)"/>
      <path id="Path_134" data-name="Path 134" d="M421.492-442.539,409.8-436.31l.255,1.583a21.322,21.322,0,0,0,.817,2.961l.562,1.379,6.995-3.472c3.88-1.94,8.884-4.391,11.13-5.463,3.88-1.889,10.977-6.995,10.977-7.863,0-.409-.868-.613-5.872-1.327C433.439-448.665,430.733-447.491,421.492-442.539Z" transform="translate(-405.052 598.875)"/>
      <path id="Path_135" data-name="Path 135" d="M841.513-443.261c.2.357,1.379,2.042,2.553,3.727l2.2,3.063,11.488,1.43c6.331.817,11.59,1.379,11.692,1.276a33.761,33.761,0,0,0,.97-3.676c.613-2.706.613-3.421.1-3.421-.357,0-6.739-.715-14.194-1.532C840.543-444.18,840.951-444.129,841.513-443.261Z" transform="translate(-616.25 596.585)"/>
      <path id="Path_136" data-name="Path 136" d="M425.508-420.542c-5,2.961-9.241,5.463-9.343,5.565-.357.357,1.991,5.872,2.5,5.872.562,0,8.475-4.9,9.8-6.025a30.48,30.48,0,0,0,3.165-4.544c1.276-2.093,2.655-4.34,3.114-5,.46-.715.613-1.276.408-1.225C434.9-425.9,430.563-423.5,425.508-420.542Z" transform="translate(-408.149 587.804)"/>
      <path id="Path_137" data-name="Path 137" d="M859-420.09c1.532,1.634,2.808,3.063,2.91,3.166.1.153,11.079,2.5,12,2.6.408,0,2.144-5.106,1.787-5.412-.255-.255-17.41-3.268-18.687-3.268C856.6-423,857.517-421.672,859-420.09Z" transform="translate(-623.881 586.382)"/>
      <path id="Path_138" data-name="Path 138" d="M849.75-403.88c-8.935,2.349-9.241,1.787,2.553,4.85,5.769,1.532,10.722,2.757,11.028,2.757.562,0,2.961-5.565,2.6-5.923-.255-.255-11.386-2.757-11.947-2.706C853.783-404.9,851.843-404.39,849.75-403.88Z" transform="translate(-617.186 577.524)"/>
      <path id="Path_140" data-name="Path 140" d="M428.748-395.806c-2.859,1.838-4.748,3.421-4.748,3.88a7.13,7.13,0,0,0,1.174,2.757l1.123,1.94,7.4-5.157c10.109-6.995,9.854-6.586,4.34-6.535h-4.6Z" transform="translate(-412.002 574.607)"/>
      <path id="Path_141" data-name="Path 141" d="M495.23-397.266a50.331,50.331,0,0,0-5.82,1.736c-.153.153.357.919,1.123,1.736l1.379,1.43-2.451,1.583c-1.327.919-2.2,1.634-1.838,1.634a100.453,100.453,0,0,0,10.365-2.4c.153-.153-.562-.868-1.532-1.685s-1.685-1.583-1.532-1.685c.153-.153,1.889-1.072,3.829-2.093C503.042-399.206,502.48-399.206,495.23-397.266Z" transform="translate(-443.101 574.484)"/>
      <path id="Path_142" data-name="Path 142" d="M794.616-397.468c-.919,2.246-1.327,2.3-3.574.511-1.123-.868-2.042-1.43-2.042-1.174.051.2,1.378,2.451,3.012,4.953l3.012,4.544.613-1.991c.357-1.123.766-2.2.868-2.4.153-.255,1.583.868,3.216,2.4a31.9,31.9,0,0,0,3.217,2.859,43.527,43.527,0,0,0-3.523-5.616c-2.093-3.114-3.881-5.616-3.983-5.616A5.523,5.523,0,0,0,794.616-397.468Z" transform="translate(-590.644 574.636)"/>
      <path id="Path_143" data-name="Path 143" d="M441.822-390.319c-4.748,3.625-8.833,6.791-9.088,7.046-.562.562,2.451,6.229,3.268,6.229.919,0,23.486-17.972,23.027-18.38a43.352,43.352,0,0,0-8.169-1.481C450.655-396.906,446.57-393.944,441.822-390.319Z" transform="translate(-416.242 573.613)"/>
      <path id="Path_144" data-name="Path 144" d="M815-396.085a53.078,53.078,0,0,0,4.238,5.923c.1.1,5.565,1.838,12.151,3.778,6.586,1.991,12.356,3.727,12.815,3.88.664.2,1.225-.408,2.2-2.3a22.658,22.658,0,0,0,1.276-2.808c0-.1-5.412-1.991-12.049-4.136-9.139-2.961-13.071-3.982-16.338-4.238A16.978,16.978,0,0,0,815-396.085Z" transform="translate(-603.369 573.253)"/>
      <path id="Path_145" data-name="Path 145" d="M507.234-389.618c-3.37,9.19-6.331,18.84-7.148,23.078a17.1,17.1,0,0,0-.511,3.727c.153,0,5.31-2.5,11.59-5.514,6.229-3.063,12.662-6.076,14.3-6.739l2.961-1.174-5.514-5.412c-3.012-2.961-7.2-7.454-9.292-9.905-2.042-2.451-3.778-4.442-3.88-4.442S508.561-393.141,507.234-389.618Zm10.262,8.271c1.583,2.349,2.808,4.34,2.655,4.442-.357.357-11.437,4.8-11.59,4.7-.051-.1.664-3.676,1.685-7.965.97-4.34,1.787-7.965,1.787-8.118C512.084-388.8,514.433-385.789,517.5-381.347Z" transform="translate(-448.978 573.167)"/>
      <path id="Path_147" data-name="Path 147" d="M762.4-387.794c-2.655,2.757-6.944,6.791-9.548,8.986a54.566,54.566,0,0,0-4.748,4.238c-.051.357,2.706,1.379,15.113,5.565,9.19,3.114,17.155,5.208,17.717,4.6.1-.1-2.093-4.8-4.85-10.416-2.808-5.616-5.769-12-6.688-14.194a21.049,21.049,0,0,0-1.889-3.88C767.3-392.849,765.05-390.551,762.4-387.794Zm8.935,14.143c-.357.306-15.623-3.012-15.623-3.421a47.78,47.78,0,0,1,5.208-4.034l5.208-3.727,2.757,5.463C770.36-376.409,771.483-373.8,771.33-373.652Z" transform="translate(-570.626 571.65)"/>
      <path id="Path_150" data-name="Path 150" d="M465.6-375.476l-6.637,1.379-7.659,5.208c-4.238,2.91-7.607,5.412-7.505,5.616a23.5,23.5,0,0,0,1.685,2.553l1.532,2.144,7.454-5.106a72.988,72.988,0,0,1,7.71-4.9c.1.153-.664,5.463-1.685,11.794l-1.94,11.539,2.757,2.808a20.6,20.6,0,0,0,3.012,2.757,37.864,37.864,0,0,0,1.123-6.331,175.5,175.5,0,0,1,6.28-25.784c1.327-3.931,1.532-5.208.919-5.106C472.39-376.854,469.224-376.242,465.6-375.476Z" transform="translate(-421.69 563.825)"/>
      <path id="Path_151" data-name="Path 151" d="M814.632-373.789c-1.379,1.736-2.757,3.421-2.961,3.829-.459.766,4.391,13.019,5.463,13.836.664.511,5.463,1.787,5.718,1.481a23.183,23.183,0,0,0-1.532-4.493c-.919-2.4-2.093-5.514-2.553-6.995l-.919-2.655,2.655-2.91,2.655-2.91L820.5-375.78a13.7,13.7,0,0,0-3.012-1.123A25.791,25.791,0,0,0,814.632-373.789Z" transform="translate(-601.725 563.823)"/>
      <path id="Path_152" data-name="Path 152" d="M841-368.643a24.528,24.528,0,0,0,.97,2.961c.766,2.042,1.276,2.655,2.553,3.012.868.255,1.583.613,1.583.817a67.338,67.338,0,0,1-4.289,6.178c-2.349,3.217-4.136,5.974-3.931,6.178a5.9,5.9,0,0,0,2.349.664l2.042.357,4.136-5.565c4.7-6.178,8.067-11.386,7.659-11.743-.255-.306-11.539-3.166-12.407-3.217C841.305-369,841-368.847,841-368.643Z" transform="translate(-614.562 559.953)"/>
      <path id="Path_153" data-name="Path 153" d="M544.714-350.633c-6.28,4.238-6.127,4.085-3.88,5.208l1.889.97-1.225,1.532c-.664.817-1.532,1.94-1.94,2.451-.919,1.225-1.021,1.276,5.106-2.655l4.34-2.808-2.5-.817c-2.2-.766-2.349-.919-1.634-1.532.868-.766,5.106-5.667,4.8-5.616C549.616-353.9,547.369-352.42,544.714-350.633Z" transform="translate(-468.333 552.563)"/>
      <path id="Path_154" data-name="Path 154" d="M744-352.634c0,.766,1.685,10.109,1.889,10.314.1.153.919-.613,1.787-1.736L749.31-346l1.94,4.034c1.072,2.2,1.838,3.574,1.736,3.012-.153-.562-.766-3.421-1.379-6.382s-1.174-5.463-1.276-5.565c-.153-.153-.919.306-1.787.919-1.736,1.276-1.736,1.276-3.319-1.634C744.51-352.94,744-353.348,744-352.634Z" transform="translate(-568.62 552.113)"/>
      <path id="Path_155" data-name="Path 155" d="M566.206-345.975c.766,15.062,2.2,27.264,3.217,28.285.255.255,1.225-.562,2.2-1.736,3.421-4.289,16.747-19.2,18.125-20.27.766-.613,1.276-1.174,1.174-1.225-.1-.1-2.6-1.072-5.463-2.144-2.91-1.072-8.527-3.523-12.458-5.412L565.9-352Zm12.713,4.748c3.012,1.174,5.412,2.3,5.31,2.553a58.276,58.276,0,0,1-4.952,4.8c-3.421,3.114-4.953,4.187-5.208,3.727a46.972,46.972,0,0,1-1.379-5.82c-.562-2.808-1.225-5.769-1.43-6.535-.306-1.379-.255-1.43.919-1.174C572.895-343.473,575.958-342.4,578.92-341.227Z" transform="translate(-481.452 551.632)"/>
      <path id="Path_156" data-name="Path 156" d="M709.715-347.45c-2.961,1.327-8.322,3.421-12,4.646-3.625,1.174-6.791,2.349-7.046,2.5-1.021.97,24.15,22.005,26.294,22.005.255,0,.357-.97.2-2.2-.51-3.676-1.327-17.666-1.43-23.741a29.586,29.586,0,0,0-.357-5.667C715.229-349.9,712.677-348.777,709.715-347.45Zm1.685,2.757a60.562,60.562,0,0,1,.306,7.71l.1,7.046-2.961-1.634c-7.454-4.187-9.343-5.361-9.19-5.769.1-.408,10.569-7.863,11.13-7.965C710.992-345.357,711.247-345.05,711.4-344.693Z" transform="translate(-542.504 550.605)"/>
      <path id="Path_157" data-name="Path 157" d="M769.376-340.462c.153.46.868,3.676,1.634,7.148l1.327,6.382,5.157,7.4c2.808,4.085,5.208,7.556,5.31,7.659.2.306,2.144-.817,3.88-2.2l1.379-1.123-5.157-7.25c-2.859-4.033-5.055-7.454-4.85-7.607.153-.2,5.106.408,10.926,1.276,5.82.919,11.028,1.634,11.59,1.634,1.174,0,6.637-5.208,6.076-5.769a5.068,5.068,0,0,0-2.3-.357c-4.8,0-18.176-2.859-29.46-6.28C770.142-340.973,769.172-341.126,769.376-340.462Z" transform="translate(-581.027 546.17)"/>
      <path id="Path_158" data-name="Path 158" d="M500.067-332.294l-6.433,2.655-.817,2.91c-.46,1.634-.817,3.063-.817,3.166a19.558,19.558,0,0,0,3.727-1.174c1.991-.817,5.259-1.94,7.148-2.6l3.523-1.123,1.583,1.481c.919.766,2.246,1.991,3.012,2.655l1.379,1.174.817-1.94c1.583-3.829,1.634-3.829-2.247-6.995A25.163,25.163,0,0,0,506.96-335C506.755-334.949,503.641-333.775,500.067-332.294Z" transform="translate(-445.283 543.312)"/>
      <path id="Path_159" data-name="Path 159" d="M539.29-328.753l-3.063,2.2-3.676,11.692c-1.991,6.433-3.727,12.254-3.778,12.968-.153,1.021.255,1.481,2.246,2.553a8.462,8.462,0,0,0,2.6,1.021c.1-.153,2.042-5.769,4.289-12.509,3.216-9.5,4.187-13.122,4.442-16.236a35.631,35.631,0,0,0,.153-3.931C542.4-331,540.975-329.979,539.29-328.753Z" transform="translate(-463.266 541.354)"/>
      <path id="Path_160" data-name="Path 160" d="M626.157-327.975c1.532,4.9,13.377,27.418,15.266,28.949.613.511,1.276-1.072,4.187-9.752,1.889-5.667,4.289-12.458,5.31-15.011l1.94-4.7-7.505.051c-4.085.051-10.16-.1-13.479-.306l-6.076-.46Zm21.189,5c0,.766-5.31,11.233-5.667,11.233A37.8,37.8,0,0,1,637.594-317c-2.042-2.859-3.931-5.514-4.187-5.872-.358-.46,1.021-.613,6.739-.613C644.538-323.482,647.346-323.277,647.346-322.971Z" transform="translate(-510.769 540.473)"/>
      <path id="Path_161" data-name="Path 161" d="M680.3-327.378c-.409,1.481-1.378,5.667-2.042,8.578l-.357,1.43,2.144-1.072c1.123-.613,2.247-.97,2.4-.766a18.355,18.355,0,0,1,.613,4.238l.255,3.931,1.123-6.382a51.621,51.621,0,0,0,.919-6.535,5.242,5.242,0,0,0-1.94.306l-1.787.511-.46-2.91C680.708-328.705,680.657-328.807,680.3-327.378Z" transform="translate(-536.268 540.029)"/>
      <path id="Path_162" data-name="Path 162" d="M611.114-322.6c-1.685,2.91-3.115,5.412-3.115,5.616s.919.357,2.042.357a10.85,10.85,0,0,1,2.042.1c0,.1-.357,1.379-.715,2.808a7.548,7.548,0,0,0-.511,2.706,84.637,84.637,0,0,0,5.259-7.761l1.123-1.889-2.553.306-2.6.306,1.276-3.727a17.068,17.068,0,0,0,1.072-3.931A37.478,37.478,0,0,0,611.114-322.6Z" transform="translate(-502.057 539.742)"/>
      <path id="Path_163" data-name="Path 163" d="M750.562-321.477c-.306,1.991-.562,4.033-.562,4.544,0,.766,11.437,16.236,13.785,18.687.255.255,1.787-.408,3.523-1.481l3.115-1.889-2.144-2.706c-1.225-1.481-5.412-6.74-9.343-11.692-3.931-4.9-7.3-8.935-7.454-8.986A12.813,12.813,0,0,0,750.562-321.477Z" transform="translate(-571.556 538.418)"/>
      <path id="Path_167" data-name="Path 167" d="M698.413-305.723l-.613,3.778,6.229,11.437c3.421,6.28,6.382,11.641,6.637,11.9.408.357,5.616-1.021,5.616-1.532,0-.1-2.5-5.208-5.565-11.335-3.625-7.2-6.433-12.049-7.965-13.888C698.821-310.012,699.178-309.961,698.413-305.723Z" transform="translate(-546.008 530.526)"/>
      <path id="Path_168" data-name="Path 168" d="M488.621-306.839a5.7,5.7,0,0,0-.357,2.5c.511,1.328,16.389,13.02,16.951,12.458.1-.1.919-2.91,1.787-6.28.919-3.319,1.736-6.382,1.889-6.74.153-.46-.817-.255-2.961.562-2.808,1.021-3.319,1.43-3.727,2.808-.306.97-.715,1.532-1.123,1.379-.357-.153-2.91-1.94-5.667-4.034C488.826-309.137,489.336-308.932,488.621-306.839Z" transform="translate(-443.436 530.213)"/>
      <path id="Path_169" data-name="Path 169" d="M549.655-293.761C548.174-288.349,547-283.5,547-283.039c0,.766,3.88,2.91,5.361,2.91.357,0,1.123-2.4,1.94-5.82l1.328-5.82-1.328-5.514a41.145,41.145,0,0,0-1.634-5.923C552.463-303.411,551.136-299.173,549.655-293.761Z" transform="translate(-472.202 527.755)"/>
      <path id="Path_170" data-name="Path 170" d="M589.176-300.987l-3.574,2.5-1.583,11.437c-.919,6.229-1.532,11.488-1.43,11.59a22.393,22.393,0,0,0,3.472,1.072l3.319.97.306-1.634c.766-4.952,3.37-27.009,3.217-27.673C592.8-303.285,591.882-302.876,589.176-300.987Z" transform="translate(-489.615 527.629)"/>
      <path id="Path_171" data-name="Path 171" d="M615.295-296.975l-3.88,6.076-1.634,9.037c-1.838,9.8-1.838,9.956,1.021,10.007a11.351,11.351,0,0,1,2.349.306c1.021.255,1.123-.153,2.451-8.322.766-4.7,1.481-8.884,1.634-9.241.1-.408,3.421,3.676,7.4,9.037l7.2,9.752h4.034c2.2,0,4.034-.1,4.034-.306a32.9,32.9,0,0,0-2.757-3.676,156.682,156.682,0,0,1-13.836-21.444c-2.2-3.982-3.982-7.25-4.034-7.25S617.439-300.294,615.295-296.975Z" transform="translate(-502.306 527.65)"/>
      <path id="Path_173" data-name="Path 173" d="M748-295.49V-291l3.319,5.055,3.319,5.055,2.553-1.276a11.253,11.253,0,0,0,2.553-1.532c0-.255-10.467-14.909-11.284-15.828C748.2-299.779,748-298.043,748-295.49Z" transform="translate(-570.577 525.961)"/>
      <path id="Path_174" data-name="Path 174" d="M721.062-292.6c.766,1.94,11.028,18.534,11.539,18.534a28.669,28.669,0,0,0,5.667-2.3A41.461,41.461,0,0,0,735-281.728c-3.625-5.463-3.523-5.361-13.683-11.13C721.062-293.012,720.96-292.859,721.062-292.6Z" transform="translate(-557.374 522.717)"/>
      <path id="Path_175" data-name="Path 175" d="M570.31-286.464c-3.063,3.166-3.114,3.268-4.238,8.322-.562,2.808-1.072,5.463-1.072,5.923,0,1.021,5.055,2.757,5.361,1.838.459-1.276,3.37-18.38,3.216-18.84C573.475-289.426,571.995-288.2,570.31-286.464Z" transform="translate(-481.011 520.917)"/>
      <path id="Path_176" data-name="Path 176" d="M670.561-289.54l-2.3.306-2.706,6.637-2.757,6.637,1.43,2.655a12.367,12.367,0,0,0,1.736,2.706,48,48,0,0,0,3.063-5.974,46.7,46.7,0,0,1,3.676-6.893c.715-.715,1.736-.919,4.238-.919,1.838,0,3.319-.2,3.319-.46a16.8,16.8,0,0,0-1.021-2.808L678.168-290l-2.655.1A49.062,49.062,0,0,0,670.561-289.54Z" transform="translate(-528.878 521.288)"/>
      <path id="Path_177" data-name="Path 177" d="M685.366-267.5c-1.276,3.063-1.328,3.319-.255,4.9,1.021,1.532,1.225,1.481-6.178,2.553-8.935,1.327-8.731,1.225-6.842,3.931,1.123,1.532,1.174,1.532,4.493,1.174,4.238-.408,16.542-2.757,17-3.217.357-.357-6.229-11.845-6.791-11.845A7.367,7.367,0,0,0,685.366-267.5Z" transform="translate(-532.91 511.499)"/>
    </g>
    <g id="outer" transform="matrix(0.921, 0.391, -0.391, 0.921, 408.291, -872.449)">
      <path id="Path_57" data-name="Path 57" d="M638.245-818.953c-.408,1.174-2.246,6.331-4.084,11.386s-4.289,11.641-5.565,14.6l-2.2,5.412,9.19.306c5.106.2,11.59.562,14.449.868a37.153,37.153,0,0,0,5.974.408c.613-.1.051-1.787-2.655-8.067-4.136-9.445-10.314-21.546-12.611-24.814l-1.685-2.349Zm6.025,19.912,4.442,6.535h-8.22a63.105,63.105,0,0,1-8.169-.255c0-.97,6.791-13.581,7.1-13.224C639.624-805.73,641.819-802.615,644.27-799.041Z" transform="translate(-474.914 821.2)"/>
      <path id="Path_58" data-name="Path 58" d="M733.083-792.685c-3.931,4.8-9.139,10.926-11.59,13.683L717-774.05l2.2.817c1.174.408,4.442,1.634,7.25,2.655s8.169,3.319,11.947,5.106l6.842,3.268-.357-6.484c-.715-13.275-3.063-31.3-4.238-32.319C740.384-801.212,737.014-797.485,733.083-792.685Zm4.493,12.56c1.072,3.931,1.889,7.454,1.889,7.863,0,.562-1.634.153-6.893-1.736-3.778-1.328-7.2-2.6-7.556-2.859-.562-.306.511-1.634,4.544-5.412a59.746,59.746,0,0,1,5.718-4.953C735.534-787.222,736.555-784.006,737.576-780.125Z" transform="translate(-519.257 811.321)"/>
      <path id="Path_59" data-name="Path 59" d="M539.3-799.643c-.051.255-.051,5.565-.051,11.9s-.2,14.143-.409,17.359-.306,5.974-.255,6.076c.1.051,3.319-.97,7.2-2.4,3.88-1.378,10.416-3.421,14.551-4.442l7.556-1.94-3.063-3.37C557.683-784.479,541.14-800,539.711-800A.4.4,0,0,0,539.3-799.643Zm11.079,17.513c2.757,1.94,5.565,4.033,6.229,4.544l1.174.919-6.484,2.4c-3.574,1.276-7.046,2.5-7.761,2.655-1.328.357-1.328.357-1.021-2.144.153-1.379.562-4.748.919-7.505.46-3.727.766-4.953,1.225-4.748C545.072-785.857,547.625-784.121,550.382-782.13Z" transform="translate(-431.93 810.824)"/>
      <path id="Path_60" data-name="Path 60" d="M598.94-797.954a28.439,28.439,0,0,0-.613,3.625c-.357,2.6-.306,2.655,1.328,3.472,1.583.868,1.685.868,2.553-.306,1.276-1.634,1.225-1.991-.613-4.6C599.349-798.873,599.247-798.976,598.94-797.954Z" transform="translate(-461.087 810.106)"/>
      <path id="Path_61" data-name="Path 61" d="M703.634-796.488A17.63,17.63,0,0,0,702-792.863a4.129,4.129,0,0,0,1.276,1.787l1.276,1.174,1.276-1.174c1.481-1.379,1.532-1.838.357-5.616l-.919-2.808Z" transform="translate(-511.915 810.579)"/>
      <path id="Path_62" data-name="Path 62" d="M504-764.267a31.78,31.78,0,0,0,.562,3.523c.562,2.757.613,2.859,2.451,3.115a11.034,11.034,0,0,0,1.991.1,7.6,7.6,0,0,0,.409-1.889c.306-1.685.153-1.889-2.247-3.625C504.357-765.135,504-765.237,504-764.267Z" transform="translate(-415.008 793.624)"/>
      <path id="Path_63" data-name="Path 63" d="M802.036-758.751c-2.5,2.2-2.655,2.4-2.093,3.727.919,2.093,1.123,2.2,2.859,1.583,1.787-.613,2.349-2.246,2.042-5.718l-.153-1.94Z" transform="translate(-559.72 791.785)"/>
      <path id="Path_64" data-name="Path 64" d="M828.592-744.519c-5,3.115-17.921,10.569-23.129,13.326L800-728.283l5.208,4.238c2.91,2.349,7.965,6.995,11.335,10.313,3.319,3.319,6.127,6.025,6.178,6.025a3.594,3.594,0,0,0,.408-1.174c.1-.613,1.276-4.748,2.553-9.139C829.307-730.53,832.421-746,831.3-746A14.1,14.1,0,0,0,828.592-744.519Zm-7.148,18.176c-.408,4.34-.817,7.914-1.021,7.914-.46,0-11.947-9.6-12.152-10.109-.153-.46,13.275-6.28,13.632-5.923C822.005-734.359,821.8-730.734,821.444-726.343Z" transform="translate(-559.88 784.395)"/>
      <path id="Path_65" data-name="Path 65" d="M442-743.142a9.17,9.17,0,0,0,.562,1.889c2.093,5.361,8.322,23.078,9.445,26.907.766,2.553,1.43,4.748,1.532,4.85a63.086,63.086,0,0,0,5.412-4.238c2.91-2.451,8.322-6.535,12.049-9.088,6.28-4.34,6.74-4.748,5.872-5.412-1.43-1.123-18.636-9.394-24.405-11.743C446.34-742.427,442-743.755,442-743.142ZM463.6-728.8c4.187,1.225,4.391.817-3.319,7.148-3.523,2.961-5.616,4.34-5.769,3.931-.2-.613-3.319-14.092-3.319-14.449C451.19-732.318,457.266-730.633,463.6-728.8Z" transform="translate(-384.663 783.069)"/>
      <path id="Path_80" data-name="Path 80" d="M420.62-695.6c1.991,3.523,2.246,3.727,3.727,3.727,2.2,0,2.757-.664,2.246-2.6-.408-1.532-.766-1.787-3.523-2.6A30.749,30.749,0,0,0,419.65-698C419.446-698,419.854-696.928,420.62-695.6Z" transform="translate(-373.699 760.902)"/>
      <path id="Path_83" data-name="Path 83" d="M882.066-689.775c-2.91,1.174-3.421,1.94-2.859,4.187.306,1.123.562,1.276,2.2,1.123,1.736-.153,1.94-.357,3.268-3.37.919-1.991,1.225-3.166.817-3.166A22.6,22.6,0,0,0,882.066-689.775Z" transform="translate(-598.547 757.476)"/>
      <path id="Path_88" data-name="Path 88" d="M898.514-659.64c-1.174.46-22.363,4.238-27.06,4.85-2.808.357-5.208.664-5.259.766a59.039,59.039,0,0,0,3.268,5.923c1.889,3.165,5,9.088,6.893,13.173,1.889,4.034,3.625,7.454,3.88,7.505,1.276.357,21.086-29.562,21.086-31.86C901.322-659.9,899.688-660.1,898.514-659.64Zm-10.671,9.5c-4.238,9.446-5.667,12.152-6.076,12-.715-.2-8.22-13.07-7.863-13.428.255-.255,7.812-.868,13.479-1.174l1.685-.051Z" transform="translate(-592.275 742.25)"/>
      <path id="Path_89" data-name="Path 89" d="M370.815-657.533c-1.021.306-.511,1.123,6.535,9.548,4.238,5.055,9.241,11.284,11.13,13.888a48.924,48.924,0,0,0,3.676,4.7,54.323,54.323,0,0,0,3.931-6.28c2.042-3.472,5.769-9.139,8.271-12.611,5.361-7.454,5.872-6.637-5.055-7.812C383.477-657.788,373.572-658.3,370.815-657.533Zm27.979,6.586c0,.511-7.863,13.939-8.169,13.939-.306-.051-7.556-11.386-7.965-12.458-.2-.562,1.327-.817,7.046-1.174,4.034-.306,7.71-.562,8.22-.562C398.386-651.253,398.794-651.151,398.794-650.947Z" transform="translate(-349.627 741.266)"/>
      <path id="Path_103" data-name="Path 103" d="M363.1-605.643a13.643,13.643,0,0,0,2.757,2.6c2.757,2.144,2.808,2.144,4.34,1.379,1.685-.868,1.787-1.174.919-3.063-.562-1.174-.817-1.276-4.34-1.276C364.733-606,363.048-605.847,363.1-605.643Z" transform="translate(-346.046 715.874)"/>
      <path id="Path_107" data-name="Path 107" d="M930.557-595.672c-.817,2.093-.613,2.6,1.123,3.217,1.583.562,1.736.511,4.238-1.991L938.471-597h-3.727C931.221-597,931.017-596.949,930.557-595.672Z" transform="translate(-623.552 711.469)"/>
      <path id="Path_112" data-name="Path 112" d="M365.338-571.591c-16.645,3.88-29.613,7.607-33.7,9.752l-1.94.97,2.5,1.43c7.3,4.136,20.372,12,24,14.4a38.841,38.841,0,0,0,4.442,2.706c.2,0,.357-.46.357-.97,0-2.144,2.706-14.449,4.6-21.086,1.123-3.88,2.042-7.148,2.042-7.3C367.635-572,366.869-571.948,365.338-571.591Zm-6.025,7.914c-.153.664-.766,4.238-1.43,7.965-.817,4.7-1.327,6.688-1.787,6.535-.97-.357-11.437-8.629-11.437-9.037,0-.357,13.632-6.586,14.5-6.586C359.364-564.8,359.466-564.29,359.313-563.677Z" transform="translate(-329.7 699.182)"/>
      <path id="Path_114" data-name="Path 114" d="M906.228-566.14c1.174,4.085,2.655,14.5,3.676,25.835a16.434,16.434,0,0,0,.562,3.472c.408,0,12.611-8.271,17.564-11.9,6.74-4.952,13.224-10.62,13.275-11.641a103.749,103.749,0,0,0-10.314-1.94c-9.19-1.481-19.5-3.37-23.588-4.442C906.177-567.059,906.023-566.956,906.228-566.14Zm19.4,7.71c.766.153,1.378.408,1.378.613,0,.153-2.6,2.91-5.82,6.127l-5.769,5.769-1.532-7.812a79.734,79.734,0,0,1-1.327-8.22c.1-.153,2.757.46,5.872,1.43C921.6-559.553,924.812-558.634,925.629-558.43Z" transform="translate(-611.834 696.743)"/>
      <path id="Path_124" data-name="Path 124" d="M345.961-503.158A9.686,9.686,0,0,0,343-501.524a10.419,10.419,0,0,0,3.165,1.532l3.166,1.123,1.174-1.327c1.481-1.736,1.481-2.093-.2-3.268C348.871-504.435,348.871-504.435,345.961-503.158Z" transform="translate(-336.209 666.03)"/>
      <path id="Path_125" data-name="Path 125" d="M947.223-493.376l-1.123,1.43,1.43,1.379,1.43,1.328,3.114-1.379a16.44,16.44,0,0,0,3.165-1.736,38.271,38.271,0,0,0-6.382-2.349C948.6-494.754,947.836-494.193,947.223-493.376Z" transform="translate(-631.385 661.404)"/>
      <path id="Path_127" data-name="Path 127" d="M352.314-476.333c-12.254,8.016-22.873,16.287-22.057,17.1.153.153,6.229,1.43,13.479,2.757,7.25,1.379,15.011,2.961,17.206,3.574a24.081,24.081,0,0,0,4.187.868c.051-.051-.408-3.319-1.072-7.25s-1.327-9.241-1.481-11.743c-.562-8.22-.868-10.977-1.276-10.977C361.1-482,357.062-479.447,352.314-476.333Zm5.463,11.284c.715,4.289,1.072,7.863.868,7.965-.357.153-13.734-3.931-14.245-4.34-.255-.255,11.284-11.335,11.794-11.386C356.4-472.81,357.113-469.287,357.777-465.049Z" transform="translate(-329.951 655.185)"/>
      <path id="Path_129" data-name="Path 129" d="M909.8-472.183a168.927,168.927,0,0,1-4.238,19.657,38.294,38.294,0,0,0-1.276,5.769c.46.46,19.4-4.646,27.418-7.352,5.412-1.838,9.7-3.676,9.7-4.187a33.862,33.862,0,0,0-5.463-3.319c-8.68-4.748-18.534-10.416-21.6-12.458-1.532-1.072-3.063-2.042-3.37-2.247C910.619-476.523,910.211-475.145,909.8-472.183Zm17.155,11.641c-.766.817-14.449,6.688-14.551,6.28-.2-.46,1.736-13.02,2.246-14.858.2-.715,1.43,0,6.382,3.727C924.4-462.84,927.111-460.644,926.958-460.542Z" transform="translate(-610.916 652.414)"/>
      <path id="Path_139" data-name="Path 139" d="M361.451-398.685a20.628,20.628,0,0,0-2.451,2.4,17.01,17.01,0,0,0,3.778.051l3.727-.153.562-1.787c.511-1.685.46-1.838-.715-2.3C364.361-401.186,364-401.084,361.451-398.685Z" transform="translate(-344.04 615.472)"/>
      <path id="Path_146" data-name="Path 146" d="M383.317-385.45C374.586-373.758,368-363.5,368-361.606c0,.255,1.787.153,3.982-.255,9.65-1.685,23.435-3.778,27.366-4.136l4.34-.357-3.114-5.361c-1.736-2.961-4.748-8.935-6.688-13.275s-3.727-8.118-3.931-8.322C389.75-393.568,386.738-390.045,383.317-385.45ZM391.078-378c1.583,2.757,3.319,5.974,3.931,7.1l1.021,2.144-7.505.2c-4.136.1-7.607.153-7.761.051-.255-.255,6.74-14.449,7.148-14.449A33.208,33.208,0,0,1,391.078-378Z" transform="translate(-348.445 611.785)"/>
      <path id="Path_148" data-name="Path 148" d="M928.634-391.779A5.015,5.015,0,0,0,927-390.451a5.723,5.723,0,0,0,1.174,1.736c1.072,1.327,1.276,1.378,4.34,1.072a8.94,8.94,0,0,0,3.166-.613,16.287,16.287,0,0,0-2.706-2.451l-2.706-2.093Z" transform="translate(-622.037 611.528)"/>
      <path id="Path_149" data-name="Path 149" d="M878.951-385.748a173.922,173.922,0,0,1-10.875,17.819,42.033,42.033,0,0,0-3.88,6.025c1.123,1.123,36.608,2.91,38.293,1.94.664-.357-.357-1.787-5.31-7.352-3.319-3.778-8.373-9.752-11.232-13.275-2.808-3.523-5.31-6.586-5.514-6.842C880.177-387.637,879.513-386.923,878.951-385.748Zm7.454,12.049,4.187,6.331-1.378.255c-2.655.511-14.449,1.43-14.755,1.123-.306-.255,7.046-14.092,7.505-14.092A67.274,67.274,0,0,1,886.406-373.7Z" transform="translate(-591.297 608.918)"/>
      <path id="Path_164" data-name="Path 164" d="M447.348-311.486c-5.208,16.185-8.833,32.217-7.148,31.911.255-.051,3.574-1.838,7.352-4.034s10.722-5.923,15.419-8.373l8.527-4.391-5.923-5.055c-3.217-2.808-8.067-7.454-10.722-10.313a46.482,46.482,0,0,0-5.31-5.259C449.339-317,448.318-314.5,447.348-311.486Zm10.773,10.518c2.91,2.5,5.157,4.7,5,4.9-.306.511-13.479,5.82-13.785,5.565-.153-.2,1.021-11.539,1.532-14.653.306-1.583.409-1.685,1.174-1.021C452.5-305.767,455.262-303.419,458.121-300.968Z" transform="translate(-383.578 574.429)"/>
      <path id="Path_165" data-name="Path 165" d="M817.074-307.15c-3.063,2.706-8.373,6.893-11.794,9.343a51.2,51.2,0,0,0-6.28,4.748c0,.357,14.449,7.148,21.7,10.211,5.77,2.349,12.2,4.544,13.581,4.544.919,0,.919-.051,0-2.451-5.565-14.245-8.884-23.078-10.007-26.8-.766-2.451-1.43-4.442-1.481-4.442S820.189-309.8,817.074-307.15Zm6.944,11.079c.817,3.574,1.532,6.637,1.532,6.739,0,.255-15.368-3.625-15.674-3.982-.255-.2,1.685-2.042,8.016-7.608,3.165-2.808,3.88-3.217,4.187-2.5C822.282-302.963,823.15-299.644,824.018-296.07Z" transform="translate(-559.39 571.982)"/>
      <path id="Path_166" data-name="Path 166" d="M413.313-306.937a10.92,10.92,0,0,0-1.225,3.319,12.322,12.322,0,0,0,3.319-.919c2.961-1.174,3.012-1.225,3.166-3.319l.153-2.144h-1.991C414.845-310,414.742-309.9,413.313-306.937Z" transform="translate(-370.017 571.003)"/>
      <path id="Path_172" data-name="Path 172" d="M876.863-302.249c-1.276.255-1.583.613-1.685,1.889a2.658,2.658,0,0,0,.511,2.093c.766.664,6.535,2.247,6.535,1.838a35.993,35.993,0,0,0-3.472-5.923A5.1,5.1,0,0,0,876.863-302.249Z" transform="translate(-596.663 567.285)"/>
      <path id="Path_178" data-name="Path 178" d="M529-261.575c0,2.4,1.174,20.525,1.583,24.405.715,7.148,1.991,14.041,2.6,14.041.306,0,.97-.562,1.481-1.225,3.319-4.238,14.806-17.257,19.3-21.852l3.319-3.421-1.532-.562a191.018,191.018,0,0,1-19.453-8.373C529.255-262.086,529-262.188,529-261.575Zm15.47,12.662c2.706,1.021,4.953,2.042,4.953,2.3a33.99,33.99,0,0,1-4.187,4.085c-2.349,2.093-4.85,4.289-5.565,5l-1.379,1.225-1.838-7.659c-1.021-4.238-1.838-7.914-1.838-8.22s.97-.153,2.451.408C538.394-251.262,541.713-249.985,544.47-248.913Z" transform="translate(-427.244 547.443)"/>
      <path id="Path_179" data-name="Path 179" d="M738.354-254.552c-3.063,1.225-9.292,3.319-13.785,4.544-4.493,1.276-8.22,2.4-8.271,2.451-.2.2,10.313,10.875,15.674,15.879,5,4.646,12.151,10.467,12.917,10.467.2,0,.306-8.016.2-17.87-.051-11.539-.306-17.87-.613-17.819C744.225-256.849,741.468-255.828,738.354-254.552Zm2.553,12.2a55.487,55.487,0,0,1-1.021,7.25,68.559,68.559,0,0,1-6.842-4.289c-3.625-2.5-6.484-4.7-6.28-4.9.715-.715,14.653-5.82,14.806-5.463A67.535,67.535,0,0,1,740.906-242.349Z" transform="translate(-518.911 545.014)"/>
      <path id="Path_180" data-name="Path 180" d="M495.234-241.39c-1.276.46-1.378.766-1.583,3.931a18.505,18.505,0,0,0-.1,3.625c.255.306,5.31-4.289,5.31-4.9,0-1.072-1.174-3.217-1.736-3.166A8.869,8.869,0,0,0,495.234-241.39Z" transform="translate(-409.867 537.673)"/>
      <path id="Path_181" data-name="Path 181" d="M794.306-235.266c-.153.868-.306,1.787-.306,1.991,0,.357,5.208,4.085,5.718,4.085.306,0-.817-6.535-1.174-6.842a10.686,10.686,0,0,0-2.042-.511C794.715-236.849,794.613-236.8,794.306-235.266Z" transform="translate(-556.943 535.123)"/>
      <path id="Path_182" data-name="Path 182" d="M626-232.668c0,.664,4.033,9.394,7.914,17.155,4.289,8.629,9.5,17.359,10.313,17.359.255,0,2.093-5,4.135-11.13,3.063-9.139,6.127-17.359,8.118-22.006.255-.562-.817-.613-6.28-.306-5.821.306-19.708-.306-23.027-1.021C626.51-232.77,626-232.77,626-232.668ZM647.648-219.5c-1.838,3.727-3.472,6.842-3.523,6.944a65.021,65.021,0,0,1-4.8-6.331c-3.37-4.748-4.493-6.637-4.033-6.944a50.474,50.474,0,0,1,8.22-.408h7.505Z" transform="translate(-474.719 533.189)"/>
      <path id="Path_183" data-name="Path 183" d="M592.412-203.758c-1.021,1.123-1.072,1.225-.255,4.34.409,1.736.919,3.166,1.123,3.166a15.029,15.029,0,0,0,1.991-3.114l1.736-3.114-1.174-1.225C594.4-205.239,593.791-205.239,592.412-203.758Z" transform="translate(-457.877 519.545)"/>
      <path id="Path_184" data-name="Path 184" d="M696.077-201.519c-.715,1.481-.715,1.634,1.174,4.34a17.81,17.81,0,0,0,2.2,2.859c.2,0,.511-1.276.715-2.91a25,25,0,0,1,.613-3.523c.2-.613-2.247-2.247-3.37-2.247C697.1-203,696.537-202.336,696.077-201.519Z" transform="translate(-508.801 518.634)"/>
    </g>
  </g>
</svg>
