<svg xmlns="http://www.w3.org/2000/svg" width="70.32" height="70.32" viewBox="0 0 70.32 70.32">
  <path id="Spotify-Icon-Black-Logo.wine" d="M55.958,31.17C44.625,24.439,25.93,23.82,15.111,27.1A3.289,3.289,0,0,1,13.2,20.81c12.42-3.77,33.066-3.042,46.114,4.7a3.289,3.289,0,0,1-3.357,5.656m-.371,9.969a2.743,2.743,0,0,1-3.771.9c-9.448-5.808-23.857-7.491-35.035-4.1A2.741,2.741,0,1,1,15.188,32.7c12.77-3.875,28.645-2,39.5,4.671a2.741,2.741,0,0,1,.9,3.769m-4.3,9.574a2.19,2.19,0,0,1-3.013.729c-8.256-5.046-18.649-6.186-30.888-3.39a2.191,2.191,0,1,1-.976-4.272C29.8,40.719,41.29,42.036,50.558,47.7a2.192,2.192,0,0,1,.727,3.014M35.159,0A35.16,35.16,0,1,0,70.32,35.159,35.16,35.16,0,0,0,35.159,0" fill="#B450D0"/>
</svg>
