<svg xmlns="http://www.w3.org/2000/svg" width="60" height="60.117" viewBox="0 0 60 60.117">
  <path id="download" d="M48.022,32.7,30,50.757,11.978,32.7l3.315-3.321L27.656,41.767V0h4.688V41.767L44.707,29.379ZM60,55.421H0v4.7H60Zm0,0" transform="translate(0 0)" fill="#1a150b"/>
</svg>
