<svg xmlns="http://www.w3.org/2000/svg" width="74.8" height="74.814" viewBox="0 0 74.8 74.814">
  <g id="instagram_1_" data-name="instagram (1)" transform="translate(-0.449 0)">
    <path id="Path_18" data-name="Path 18" d="M75.058,22a27.335,27.335,0,0,0-1.739-9.076A19.165,19.165,0,0,0,62.373,1.973,27.408,27.408,0,0,0,53.3.234C49.292.044,48.021,0,37.863,0S26.434.044,22.444.219a27.345,27.345,0,0,0-9.076,1.739A18.254,18.254,0,0,0,6.733,6.284a18.419,18.419,0,0,0-4.311,6.621A27.411,27.411,0,0,0,.683,21.981c-.19,4-.234,5.276-.234,15.434S.493,48.843.668,52.833a27.334,27.334,0,0,0,1.74,9.076A19.162,19.162,0,0,0,13.354,72.856a27.409,27.409,0,0,0,9.076,1.739c3.989.176,5.261.219,15.419.219s11.429-.043,15.419-.219a27.327,27.327,0,0,0,9.076-1.739A19.137,19.137,0,0,0,73.29,61.91a27.426,27.426,0,0,0,1.739-9.076c.175-3.99.219-5.261.219-15.419S75.234,25.986,75.058,22ZM68.321,52.541a20.5,20.5,0,0,1-1.286,6.942,12.41,12.41,0,0,1-7.1,7.1,20.575,20.575,0,0,1-6.942,1.286c-3.946.176-5.13.219-15.112.219s-11.181-.043-15.112-.219a20.492,20.492,0,0,1-6.942-1.286,11.512,11.512,0,0,1-4.3-2.792,11.631,11.631,0,0,1-2.792-4.3A20.582,20.582,0,0,1,7.45,52.556c-.176-3.946-.219-5.13-.219-15.112s.043-11.18.219-15.112A20.5,20.5,0,0,1,8.735,15.39a11.371,11.371,0,0,1,2.807-4.3,11.614,11.614,0,0,1,4.3-2.791,20.592,20.592,0,0,1,6.942-1.286c3.946-.175,5.13-.219,15.112-.219,10,0,11.181.044,15.112.219A20.505,20.505,0,0,1,59.947,8.3a11.5,11.5,0,0,1,4.3,2.791,11.627,11.627,0,0,1,2.792,4.3,20.589,20.589,0,0,1,1.286,6.942c.175,3.946.219,5.13.219,15.112s-.044,11.151-.219,15.1Zm0,0" transform="translate(0 0)"/>
    <path id="Path_19" data-name="Path 19" d="M143.434,124.5a18.485,18.485,0,1,0,18.485,18.485A18.49,18.49,0,0,0,143.434,124.5Zm0,30.476a11.991,11.991,0,1,1,11.991-11.991A11.993,11.993,0,0,1,143.434,154.976Zm0,0" transform="translate(-106.08 -104.07)"/>
    <path id="Path_20" data-name="Path 20" d="M371.85,93.3a4.7,4.7,0,1,1-4.7-4.7A4.7,4.7,0,0,1,371.85,93.3Zm0,0" transform="translate(-310.241 -74.402)"/>
  </g>
</svg>
